{
  "default": {
    "searchDefault": "DuckDuckGo",
    "searchOrder": ["DuckDuckGo", "YouTube", "Google"],
    "visibleDefaultEngines": [
      "ddg", "ddg-onion", "google", "yahoo", "twitter", "wikipedia", "youtube", "startpage"
    ]
  },
  "regionOverrides": {
  },
  "locales": {
    "en-US": {
      "default": {
        "visibleDefaultEngines": [
          "ddg", "ddg-onion", "google", "yahoo", "twitter", "wikipedia", "youtube", "startpage"
        ]
      },
      "experimental-hidden": {
        "visibleDefaultEngines": [
          "amazon-ca", "amazon-au", "yandex-en", "google", "google-b-1-e", "google-b-e"
        ]
      }
    },
    "ach": {
      "default": {
        "visibleDefaultEngines": [
          "google-b-d", "bing", "amazondotcom", "ddg", "twitter", "wikipedia"
        ]
      }
    },
    "af": {
      "default": {
        "visibleDefaultEngines": [
          "google-b-d", "bing", "amazondotcom", "ddg", "wikipedia-af"
        ]
      }
    },
    "an": {
      "default": {
        "visibleDefaultEngines": [
          "google-b-d", "bing", "ebay-es", "wikipedia-an", "ddg", "twitter"
        ]
      }
    },
    "ar": {
      "default": {
        "visibleDefaultEngines": [
          "ddg", "ddg-onion", "google", "yahoo", "twitter", "wikipedia", "youtube", "startpage"
        ]
      }
    },
    "as": {
      "default": {
        "visibleDefaultEngines": [
          "google-b-d", "amazon-in", "ddg", "wikipedia-as"
        ]
      }
    },
    "ast": {
      "default": {
        "visibleDefaultEngines": [
          "google-b-d", "bing", "ddg", "ebay-es", "wikipedia-ast"
        ]
      }
    },
    "az": {
      "default": {
        "visibleDefaultEngines": [
          "google-b-d", "amazondotcom", "azerdict", "bing", "ddg", "wikipedia-az", "yandex-az"
        ]
      }
    },
    "be": {
      "default": {
        "visibleDefaultEngines": [
          "yandex-by", "google-b-d", "ddg", "wikipedia-be", "wikipedia-be-tarask"
        ]
      },
      "BY": {
        "searchDefault": "Яндекс"
      },
      "KZ": {
        "searchDefault": "Яндекс"
      },
      "RU": {
        "searchDefault": "Яндекс"
      },
      "TR": {
        "searchDefault": "Яндекс"
      }
    },
    "bg": {
      "default": {
        "visibleDefaultEngines": [
          "google-b-d", "amazondotcom", "ddg", "pazaruvaj", "wikipedia-bg"
        ]
      }
    },
    "bn": {
      "default": {
        "visibleDefaultEngines": [
          "google-b-d", "amazon-in", "bing", "ddg", "wikipedia-bn"
        ]
      }
    },
    "bn-BD": {
      "default": {
        "visibleDefaultEngines": [
          "google-b-d", "bing", "ddg", "wikipedia-bn"
        ]
      }
    },
    "bn-IN": {
      "default": {
        "visibleDefaultEngines": [
          "google-b-d", "amazon-in", "bing", "ddg", "wikipedia-bn"
        ]
      }
    },
    "br": {
      "default": {
        "visibleDefaultEngines": [
          "google-b-d", "amazon-france", "ddg", "ebay-fr", "freelang", "wikipedia-br"
        ]
      }
    },
    "bs": {
      "default": {
        "visibleDefaultEngines": [
          "google-b-d", "ddg", "olx", "twitter", "wikipedia-bs"
        ]
      }
    },
    "ca": {
      "default": {
        "visibleDefaultEngines": [
          "ddg", "ddg-onion", "google", "yahoo", "twitter", "wikipedia", "youtube", "startpage"
        ]
      }
    },
    "cak": {
      "default": {
        "visibleDefaultEngines": [
          "google-b-d", "bing", "amazondotcom", "ddg", "wikipedia-es"
        ]
      }
    },
    "crh": {
      "default": {
        "visibleDefaultEngines": [
          "google-b-d", "ddg", "twitter", "wikipedia-crh"
        ]
      }
    },
    "cs": {
      "default": {
        "visibleDefaultEngines": [
          "ddg", "ddg-onion", "google", "yahoo", "twitter", "wikipedia", "youtube", "startpage"
        ]
      }
    },
    "cy": {
      "default": {
        "visibleDefaultEngines": [
          "google-b-d", "amazon-en-GB", "ddg", "ebay-uk", "palasprint", "wikipedia-cy"
        ]
      }
    },
    "da": {
      "default": {
        "visibleDefaultEngines": [
          "ddg", "ddg-onion", "google", "yahoo", "twitter", "wikipedia", "youtube", "startpage"
        ]
      }
    },
    "de": {
      "default": {
        "visibleDefaultEngines": [
          "ddg", "ddg-onion", "google", "yahoo", "twitter", "wikipedia", "youtube", "startpage"
        ]
      }
    },
    "dsb": {
      "default": {
        "visibleDefaultEngines": [
          "google-b-d", "bing", "amazon-de", "ddg", "ebay-de", "leo_ende_de", "wikipedia-dsb"
        ]
      }
    },
    "el": {
      "default": {
        "visibleDefaultEngines": [
          "ddg", "ddg-onion", "google", "yahoo", "twitter", "wikipedia", "youtube", "startpage"
        ]
      }
    },
    "en-CA": {
      "default": {
        "visibleDefaultEngines": [
          "google-b-d", "amazon-ca", "bing", "ddg", "ebay-ca", "twitter", "wikipedia"
        ]
      },
      "KZ": {
        "visibleDefaultEngines": [
          "yandex-en", "google-b-d", "amazon-ca", "bing", "ddg", "ebay-ca", "twitter", "wikipedia"
        ],
        "searchDefault": "Yandex"
      },
      "BY": {
        "visibleDefaultEngines": [
          "yandex-en", "google-b-d", "amazon-ca", "bing", "ddg", "ebay-ca", "twitter", "wikipedia"
        ],
        "searchDefault": "Yandex"
      },
      "RU": {
        "visibleDefaultEngines": [
          "yandex-en", "google-b-d", "amazon-ca", "bing", "ddg", "ebay-ca", "twitter", "wikipedia"
        ],
        "searchDefault": "Yandex"
      },
      "TR": {
        "visibleDefaultEngines": [
          "yandex-en", "google-b-d", "amazon-ca", "bing", "ddg", "ebay-ca", "twitter", "wikipedia"
        ],
        "searchDefault": "Yandex"
      },
      "experimental-hidden": {
        "visibleDefaultEngines": [
          "amazon-ca", "amazon-au", "yandex-en", "google", "google-b-1-e", "google-b-e"
        ]
      }
    },
    "en-GB": {
      "default": {
        "visibleDefaultEngines": [
          "google-b-d", "bing", "amazon-en-GB", "chambers-en-GB", "ddg", "ebay-uk", "twitter", "wikipedia"
        ]
      },
      "KZ": {
        "visibleDefaultEngines": [
          "yandex-en", "google-b-d", "bing", "amazon-en-GB", "chambers-en-GB", "ddg", "ebay-uk", "twitter", "wikipedia"
        ],
        "searchDefault": "Yandex"
      },
      "BY": {
        "visibleDefaultEngines": [
          "yandex-en", "google-b-d", "bing", "amazon-en-GB", "chambers-en-GB", "ddg", "ebay-uk", "twitter", "wikipedia"
        ],
        "searchDefault": "Yandex"
      },
      "RU": {
        "visibleDefaultEngines": [
          "yandex-en", "google-b-d", "bing", "amazon-en-GB", "chambers-en-GB", "ddg", "ebay-uk", "twitter", "wikipedia"
        ],
        "searchDefault": "Yandex"
      },
      "TR": {
        "visibleDefaultEngines": [
          "yandex-en", "google-b-d", "bing", "amazon-en-GB", "chambers-en-GB", "ddg", "ebay-uk", "twitter", "wikipedia"
        ],
        "searchDefault": "Yandex"
      },
      "experimental-hidden": {
        "visibleDefaultEngines": [
          "yandex-en"
        ]
      }
    },
    "en-ZA": {
      "default": {
        "visibleDefaultEngines": [
          "google-b-d", "bing", "amazondotcom", "ddg", "twitter", "wikipedia"
        ]
      },
      "KZ": {
        "visibleDefaultEngines": [
          "yandex-en", "google-b-d", "bing", "amazondotcom", "ddg", "twitter", "wikipedia"
        ],
        "searchDefault": "Yandex"
      },
      "BY": {
        "visibleDefaultEngines": [
          "yandex-en", "google-b-d", "bing", "amazondotcom", "ddg", "twitter", "wikipedia"
        ],
        "searchDefault": "Yandex"
      },
      "RU": {
        "visibleDefaultEngines": [
          "yandex-en", "google-b-d", "bing", "amazondotcom", "ddg", "twitter", "wikipedia"
        ],
        "searchDefault": "Yandex"
      },
      "TR": {
        "visibleDefaultEngines": [
          "yandex-en", "google-b-d", "bing", "amazondotcom", "ddg", "twitter", "wikipedia"
        ],
        "searchDefault": "Yandex"
      }
    },
    "eo": {
      "default": {
        "visibleDefaultEngines": [
          "google-b-d", "bing", "amazondotcom", "ddg", "wikipedia-eo"
        ]
      }
    },
    "es-AR": {
      "default": {
        "visibleDefaultEngines": [
          "ddg", "ddg-onion", "google", "yahoo", "twitter", "wikipedia", "youtube", "startpage"
        ]
      }
    },
    "es-CL": {
      "default": {
        "visibleDefaultEngines": [
          "google-b-d", "bing", "drae", "ddg", "mercadolibre-cl", "wikipedia-es"
        ]
      }
    },
    "es-ES": {
      "default": {
        "visibleDefaultEngines": [
          "ddg", "ddg-onion", "google", "yahoo", "twitter", "wikipedia", "youtube", "startpage"
        ]
      }
    },
    "es-MX": {
      "default": {
        "visibleDefaultEngines": [
          "google-b-d", "bing", "ddg", "mercadolibre-mx", "wikipedia-es"
        ]
      },
      "experimental-hidden": {
        "visibleDefaultEngines": [
          "amazon-mx"
        ]
      }
    },
    "et": {
      "default": {
        "visibleDefaultEngines": [
          "google-b-d", "neti-ee", "ddg", "osta-ee", "wikipedia-et", "eki-ee"
        ]
      }
    },
    "eu": {
      "default": {
        "visibleDefaultEngines": [
          "google-b-d", "bing", "amazon-en-GB", "ddg", "ebay-es", "wikipedia-eu"
        ]
      }
    },
    "fa": {
      "default": {
        "visibleDefaultEngines": [
          "ddg", "ddg-onion", "google", "yahoo", "twitter", "wikipedia", "youtube", "startpage"
        ]
      }
    },
    "ff": {
      "default": {
        "visibleDefaultEngines": [
          "google-b-d", "bing", "amazon-france", "ddg", "wikipedia-fr"
        ]
      }
    },
    "fi": {
      "default": {
        "visibleDefaultEngines": [
          "google-b-d", "bing", "ddg", "wikipedia-fi"
        ]
      }
    },
    "fr": {
      "default": {
        "visibleDefaultEngines": [
          "ddg", "ddg-onion", "google", "yahoo", "twitter", "wikipedia", "youtube", "startpage"
        ]
      }
    },
    "fy-NL": {
      "default": {
        "visibleDefaultEngines": [
          "google-b-d", "bing", "bolcom-fy-NL", "ddg", "ebay-nl", "marktplaats-fy-NL", "wikipedia-fy-NL"
        ]
      },
      "experimental-hidden": {
        "visibleDefaultEngines": [
          "amazon-nl"
        ]
      }
    },
    "ga-IE": {
      "default": {
        "visibleDefaultEngines": [
          "ddg", "ddg-onion", "google", "yahoo", "twitter", "wikipedia", "youtube", "startpage"
        ]
      }
    },
    "gd": {
      "default": {
        "visibleDefaultEngines": [
          "google-b-d", "amazon-en-GB", "bbc-alba", "ddg", "ebay-uk", "faclair-beag", "wikipedia-gd"
        ]
      }
    },
    "gl": {
      "default": {
        "visibleDefaultEngines": [
          "google-b-d", "amazon-en-GB", "ddg", "ebay-es", "wikipedia-gl"
        ]
      }
    },
    "gn": {
      "default": {
        "visibleDefaultEngines": [
          "google-b-d", "bing", "amazondotcom", "ddg", "twitter", "wikipedia-gn"
        ]
      }
    },
    "gu-IN": {
      "default": {
        "visibleDefaultEngines": [
          "google-b-d", "bing", "amazon-in", "ddg", "wikipedia-gu"
        ]
      }
    },
    "he": {
      "default": {
        "visibleDefaultEngines": [
          "ddg", "ddg-onion", "google", "yahoo", "twitter", "wikipedia", "youtube", "startpage"
        ]
      }
    },
    "hi-IN": {
      "default": {
        "visibleDefaultEngines": [
          "google-b-d", "bing", "ddg", "wikipedia-hi"
        ]
      }
    },
    "hr": {
      "default": {
        "visibleDefaultEngines": [
          "google-b-d", "amazon-en-GB", "bing", "ddg", "eudict", "twitter", "wikipedia-hr"
        ]
      }
    },
    "hsb": {
      "default": {
        "visibleDefaultEngines": [
          "google-b-d", "bing", "amazon-de", "ddg", "ebay-de", "leo_ende_de", "wikipedia-hsb"
        ]
      }
    },
    "hu": {
      "default": {
        "visibleDefaultEngines": [
          "ddg", "ddg-onion", "google", "yahoo", "twitter", "wikipedia", "youtube", "startpage"
        ]
      }
    },
    "hy-AM": {
      "default": {
        "visibleDefaultEngines": [
          "google-b-d", "amazondotcom", "ddg", "list-am", "wikipedia-hy"
        ]
      }
    },
    "ia": {
      "default": {
        "visibleDefaultEngines": [
          "google-b-d", "bing", "amazondotcom", "ddg", "twitter", "wikipedia-ia"
        ]
      }
    },
    "id": {
      "default": {
        "visibleDefaultEngines": [
          "ddg", "ddg-onion", "google", "yahoo", "twitter", "wikipedia", "youtube", "startpage"
        ]
      }
    },
    "is": {
      "default": {
        "visibleDefaultEngines": [
          "ddg", "ddg-onion", "google", "yahoo", "twitter", "wikipedia", "youtube", "startpage"
        ]
      }
    },
    "it": {
      "default": {
        "visibleDefaultEngines": [
          "ddg", "ddg-onion", "google", "yahoo", "twitter", "wikipedia", "youtube", "startpage"
        ]
      }
    },
    "ja-JP-macos": {
      "default": {
        "visibleDefaultEngines": [
          "ddg", "ddg-onion", "google", "yahoo", "twitter", "wikipedia", "youtube", "startpage"
        ]
      }
    },
    "ja": {
      "default": {
        "visibleDefaultEngines": [
          "ddg", "ddg-onion", "google", "yahoo", "twitter", "wikipedia", "youtube", "startpage"
        ]
      }
    },
    "ka": {
      "default": {
        "visibleDefaultEngines": [
          "ddg", "ddg-onion", "google", "yahoo", "twitter", "wikipedia", "youtube", "startpage"
        ]
      }
    },
    "kab": {
      "default": {
        "visibleDefaultEngines": [
          "google-b-d", "bing", "ddg", "wikipedia-kab"
        ]
      }
    },
    "kk": {
      "default": {
        "visibleDefaultEngines": [
          "yandex-kk", "google-b-d", "ddg", "flip", "twitter", "wikipedia-kk"
        ]
      },
      "KZ": {
        "searchDefault": "Яндекс"
      },
      "BY": {
        "searchDefault": "Яндекс"
      },
      "RU": {
        "searchDefault": "Яндекс"
      },
      "TR": {
        "searchDefault": "Яндекс"
      }
    },
    "km": {
      "default": {
        "visibleDefaultEngines": [
          "google-b-d", "bing", "amazondotcom", "ddg", "twitter", "wikipedia-km"
        ]
      }
    },
    "kn": {
      "default": {
        "visibleDefaultEngines": [
          "google-b-d", "bing", "amazon-in", "ddg", "kannadastore", "wikipedia-kn"
        ]
      }
    },
    "ko": {
      "default": {
        "visibleDefaultEngines": [
          "ddg", "ddg-onion", "google", "yahoo", "twitter", "wikipedia", "youtube", "startpage"
        ]
      }
    },
    "lij": {
      "default": {
        "visibleDefaultEngines": [
          "google-b-d", "bing", "amazon-it", "ddg", "ebay-it", "wikipedia-lij"
        ]
      }
    },
    "lo": {
      "default": {
        "visibleDefaultEngines": [
          "google-b-d", "bing", "ddg", "wikipedia-lo", "twitter"
        ]
      }
    },
    "lt": {
      "default": {
        "visibleDefaultEngines": [
          "google-b-d", "wikipedia-lt", "bing", "amazondotcom", "ddg", "twitter"
        ]
      }
    },
    "ltg": {
      "default": {
        "visibleDefaultEngines": [
          "google-b-d", "ddg", "salidzinilv", "sslv", "wikipedia-ltg"
        ]
      }
    },
    "lv": {
      "default": {
        "visibleDefaultEngines": [
          "google-b-d", "ddg", "salidzinilv", "sslv", "wikipedia-lv"
        ]
      }
    },
    "mai": {
      "default": {
        "visibleDefaultEngines": [
          "google-b-d", "bing", "amazon-in", "ddg", "twitter", "wikipedia-hi"
        ]
      }
    },
    "mk": {
      "default": {
        "visibleDefaultEngines": [
          "ddg", "ddg-onion", "google", "yahoo", "twitter", "wikipedia", "youtube", "startpage"
        ]
      }
    },
    "ml": {
      "default": {
        "visibleDefaultEngines": [
          "google-b-d", "bing", "amazon-in", "ddg", "wikipedia", "wikipedia-ml"
        ]
      }
    },
    "mr": {
      "default": {
        "visibleDefaultEngines": [
          "google-b-d", "amazon-in", "ddg", "wikipedia-mr"
        ]
      }
    },
    "ms": {
      "default": {
        "visibleDefaultEngines": [
          "google-b-d", "bing", "amazondotcom", "ddg", "twitter", "wikipedia-ms"
        ]
      }
    },
    "my": {
      "default": {
        "visibleDefaultEngines": [
          "google-b-d", "bing", "amazondotcom", "ddg", "twitter", "wikipedia-my"
        ]
      }
    },
    "nb-NO": {
      "default": {
        "visibleDefaultEngines": [
          "ddg", "ddg-onion", "google", "yahoo", "twitter", "wikipedia", "youtube", "startpage"
        ]
      }
    },
    "ne-NP": {
      "default": {
        "visibleDefaultEngines": [
          "google-b-d", "bing", "ddg", "twitter", "wikipedia-ne"
        ]
      }
    },
    "nl": {
      "default": {
        "visibleDefaultEngines": [
          "ddg", "ddg-onion", "google", "yahoo", "twitter", "wikipedia", "youtube", "startpage"
        ]
      },
      "experimental-hidden": {
        "visibleDefaultEngines": [
          "amazon-nl"
        ]
      }
    },
    "nn-NO": {
      "default": {
        "visibleDefaultEngines": [
          "google-b-d", "bing", "amazon-en-GB", "ddg", "gulesider-NO", "bok-NO", "qxl-NO", "wikipedia-NN"
        ]
      }
    },
    "oc": {
      "default": {
        "visibleDefaultEngines": [
          "google-b-d", "bing", "ddg", "twitter", "wikipedia-oc", "wiktionary-oc"
        ]
      }
    },
    "or": {
      "default": {
        "visibleDefaultEngines": [
          "google-b-d", "bing", "amazon-in", "ddg", "wikipedia-or"
        ]
      }
    },
    "pa-IN": {
      "default": {
        "visibleDefaultEngines": [
          "google-b-d", "bing", "amazon-in", "ddg", "wikipedia-pa"
        ]
      }
    },
    "pl": {
      "default": {
        "visibleDefaultEngines": [
          "ddg", "ddg-onion", "google", "yahoo", "twitter", "wikipedia", "youtube", "startpage"
        ]
      }
    },
    "pt-BR": {
      "default": {
        "visibleDefaultEngines": [
          "ddg", "ddg-onion", "google", "yahoo", "twitter", "wikipedia", "youtube", "startpage"
        ]
      }
    },
    "pt-PT": {
      "default": {
        "visibleDefaultEngines": [
          "google-b-d", "amazon-en-GB", "ddg", "priberam", "wikipedia-pt"
        ]
      }
    },
    "rm": {
      "default": {
        "visibleDefaultEngines": [
          "google-b-d", "bing", "ddg", "ebay-ch", "leo_ende_de", "wikipedia-rm"
        ]
      }
    },
    "ro": {
      "default": {
        "visibleDefaultEngines": [
          "ddg", "ddg-onion", "google", "yahoo", "twitter", "wikipedia", "youtube", "startpage"
        ]
      }
    },
    "ru": {
      "default": {
        "visibleDefaultEngines": [
          "ddg", "ddg-onion", "google", "yahoo", "twitter", "wikipedia", "youtube", "startpage"
        ]
      },
      "RU": {
        "searchDefault": "Яндекс"
      },
      "BY": {
        "searchDefault": "Яндекс"
      },
      "KZ": {
        "searchDefault": "Яндекс"
      },
      "TR": {
        "searchDefault": "Яндекс"
      }
    },
    "si": {
      "default": {
        "visibleDefaultEngines": [
          "google-b-d", "amazondotcom", "ddg", "wikipedia-si"
        ]
      }
    },
    "sk": {
      "default": {
        "visibleDefaultEngines": [
          "google-b-d", "azet-sk", "atlas-sk", "ddg", "wikipedia-sk", "zoznam-sk"
        ]
      }
    },
    "sl": {
      "default": {
        "visibleDefaultEngines": [
          "google-b-d", "ceneji", "ddg", "najdi-si", "odpiralni", "twitter", "wikipedia-sl"
        ]
      }
    },
    "son": {
      "default": {
        "visibleDefaultEngines": [
          "google-b-d", "bing", "amazon-france", "ddg", "wikipedia-fr"
        ]
      }
    },
    "sq": {
      "default": {
        "visibleDefaultEngines": [
          "google-b-d", "bing", "amazon-en-GB", "ddg", "wikipedia-sq"
        ]
      }
    },
    "sr": {
      "default": {
        "visibleDefaultEngines": [
          "google-b-d", "amazon-en-GB", "bing", "ddg", "wikipedia-sr", "pogodak"
        ]
      }
    },
    "sv-SE": {
      "default": {
        "visibleDefaultEngines": [
          "ddg", "ddg-onion", "google", "yahoo", "twitter", "wikipedia", "youtube", "startpage"
        ]
      }
    },
    "ta": {
      "default": {
        "visibleDefaultEngines": [
          "google-b-d", "amazon-in", "ddg", "wikipedia-ta"
        ]
      }
    },
    "te": {
      "default": {
        "visibleDefaultEngines": [
          "google-b-d", "amazon-in", "ddg", "wikipedia-te", "wiktionary-te"
        ]
      }
    },
    "th": {
      "default": {
        "visibleDefaultEngines": [
          "google-b-d", "amazondotcom", "bing", "ddg", "longdo", "wikipedia-th"
        ]
      }
    },
    "tl": {
      "default": {
        "visibleDefaultEngines": [
          "google-b-d", "bing", "amazondotcom", "ddg", "twitter", "wikipedia-tl"
        ]
      }
    },
    "tr": {
      "default": {
        "visibleDefaultEngines": [
          "ddg", "ddg-onion", "google", "yahoo", "twitter", "wikipedia", "youtube", "startpage"
        ]
      },
      "TR": {
        "searchDefault": "Yandex"
      },
      "BY": {
        "searchDefault": "Yandex"
      },
      "KZ": {
        "searchDefault": "Yandex"
      },
      "RU": {
        "searchDefault": "Yandex"
      }
    },
    "trs": {
      "default": {
        "visibleDefaultEngines": [
          "google-b-d", "bing", "amazondotcom", "ddg", "wikipedia-es"
        ]
      }
    },
    "uk": {
      "default": {
        "visibleDefaultEngines": [
          "google-b-d", "bing", "ddg", "wikipedia-uk", "hotline-ua"
        ]
      }
    },
    "ur": {
      "default": {
        "visibleDefaultEngines": [
          "google-b-d", "bing", "amazon-in", "ddg", "twitter", "wikipedia-ur"
        ]
      }
    },
    "uz": {
      "default": {
        "visibleDefaultEngines": [
          "google-b-d", "bing", "amazondotcom", "ddg", "twitter", "wikipedia-uz"
        ]
      }
    },
    "vi": {
      "default": {
        "visibleDefaultEngines": [
          "ddg", "ddg-onion", "google", "yahoo", "twitter", "wikipedia", "youtube", "startpage"
        ]
      }
    },
    "wo": {
      "default": {
        "visibleDefaultEngines": [
          "google-b-d", "bing", "amazon-france", "ddg", "ebay-fr", "twitter", "wikipedia-wo"
        ]
      }
    },
    "xh": {
      "default": {
        "visibleDefaultEngines": [
          "google-b-d", "bing", "ddg", "wikipedia"
        ]
      }
    },
    "zh-CN": {
      "default": {
        "visibleDefaultEngines": [
          "ddg", "ddg-onion", "google", "yahoo", "twitter", "wikipedia", "youtube", "startpage"
        ]
      },
      "CN": {
        "searchDefault": "百度"
      }
    },
    "zh-TW": {
      "default": {
        "visibleDefaultEngines": [
          "ddg", "ddg-onion", "google", "yahoo", "twitter", "wikipedia", "youtube", "startpage"
        ]
      }
    }
  }
}
